0.0805482
0.0701026
0.0701026
0.0701026
0.118245
0.120396
0.120649
0.118498
0.117591
0.143673
0.150902
0.165708
0.15139
0.166817
0.158303
0.184456
0.171159
0.155751
0.182909
0.174019
0.0515291
0.0701026
0.0701026
0.0701026
0.0701026
0.112869
0.137796
0.12679
0.168059
0.667305
0.678723
0.678723
0.685058
0.689656
0.692203
0.683794
0.696981
0.693983
0.696727
0.694928
