0.0362798
0.0701026
0.0701026
0.0701026
0.0701026
0.113944
0.113637
0.111227
0.128208
0.617797
0.64973
0.66106
0.655369
0.653693
0.650007
0.662092
0.661746
0.662092
0.659799
0.654104
0.0362798
0.0701026
0.0701026
0.0701026
0.0830303
0.112869
0.114335
0.124013
0.168529
0.656949
0.677337
0.665532
0.679159
0.701311
0.698945
0.699019
0.716574
0.71483
0.715933
0.712068
0.721075
0.717691
0.720691
0.715515
0.722043
0.718994
0.712313
0.711558
0.7117
0.701131
0.700945
0.712329
0.708207
0.706722
0.687478
0.700308
0.705258
0.691125
0.701062
0.701738
